<svg width="28" height="28" viewBox="0 0 28 28" fill="none" xmlns="http://www.w3.org/2000/svg">
<rect x="0.5" y="0.5" width="27" height="27" rx="7.5" fill="white"/>
<path d="M10.5071 20.6673H17.4938C19.3338 20.6673 20.0671 19.5407 20.1538 18.1673L20.5004 12.6607C20.5938 11.2207 19.4471 10.0007 18.0004 10.0007C17.5938 10.0007 17.2204 9.76732 17.0338 9.40732L16.5538 8.44065C16.2471 7.83398 15.4471 7.33398 14.7671 7.33398H13.2404C12.5538 7.33398 11.7538 7.83398 11.4471 8.44065L10.9671 9.40732C10.7804 9.76732 10.4071 10.0007 10.0004 10.0007C8.55377 10.0007 7.4071 11.2207 7.50044 12.6607L7.8471 18.1673C7.9271 19.5407 8.6671 20.6673 10.5071 20.6673Z" stroke="#292D32" stroke-linecap="round" stroke-linejoin="round"/>
<path d="M13 11.334H15" stroke="#292D32" stroke-linecap="round" stroke-linejoin="round"/>
<path d="M13.9997 17.9993C15.193 17.9993 16.1663 17.026 16.1663 15.8327C16.1663 14.6393 15.193 13.666 13.9997 13.666C12.8063 13.666 11.833 14.6393 11.833 15.8327C11.833 17.026 12.8063 17.9993 13.9997 17.9993Z" stroke="#292D32" stroke-linecap="round" stroke-linejoin="round"/>
<rect x="0.5" y="0.5" width="27" height="27" rx="7.5" stroke="#E9E9E9"/>
</svg>
