<svg width="46" height="46" viewBox="0 0 46 46" fill="none" xmlns="http://www.w3.org/2000/svg">
<rect x="1" y="1" width="37.5" height="35" stroke="white" stroke-opacity="0.25"/>
<rect width="37.5" height="35" transform="translate(8.5 11)" fill="white"/>
<path d="M35.5 31H21.5" stroke="#007940" stroke-linecap="round" stroke-linejoin="round"/>
<path d="M28.5 38L21.5 31L28.5 24" stroke="#007940" stroke-linecap="round" stroke-linejoin="round"/>
</svg>
