<svg width="310" height="426" viewBox="0 0 310 426" fill="none" xmlns="http://www.w3.org/2000/svg">
<circle cx="97" cy="213" r="213" fill="url(#paint0_radial_2650_15374)"/>
<defs>
<radialGradient id="paint0_radial_2650_15374" cx="0" cy="0" r="1" gradientUnits="userSpaceOnUse" gradientTransform="translate(97 213) rotate(90) scale(213)">
<stop stop-color="#FC9D9B" stop-opacity="0.17"/>
<stop offset="1" stop-color="#FF4743" stop-opacity="0"/>
<stop offset="1" stop-color="#F39A98" stop-opacity="0"/>
</radialGradient>
</defs>
</svg>
