<svg width="56" height="56" viewBox="0 0 56 56" fill="none" xmlns="http://www.w3.org/2000/svg">
<path d="M28 56C43.464 56 56 43.464 56 28C56 12.536 43.464 0 28 0C12.536 0 0 12.536 0 28C0 43.464 12.536 56 28 56Z" fill="white"/>
<path d="M24.892 28.959C22.9096 28.959 21.308 30.5605 21.3373 32.5234C21.3568 33.7832 22.0502 34.877 23.0707 35.4873C22.724 34.9551 22.519 34.3252 22.5092 33.6465C22.4799 31.6836 24.0815 30.082 26.0639 30.082C26.4545 30.082 26.8305 30.1455 27.182 30.2578V26.3271C26.8158 26.2734 26.4398 26.2441 26.0639 26.2441C26.0443 26.2441 26.0297 26.2441 26.0102 26.2441V29.1348C25.6586 29.0225 25.2826 28.959 24.892 28.959Z" fill="#F00044"/>
<path d="M33.4609 17.1719H33.4316H32.416C32.709 18.6416 33.5342 19.9209 34.6865 20.79C33.9297 19.7891 33.4707 18.5391 33.4609 17.1719Z" fill="#F00044"/>
<path d="M39.4375 23.1533C39.0518 23.1533 38.6807 23.1143 38.3145 23.0459V25.8633C36.9863 25.8633 35.6973 25.6045 34.4863 25.0869C33.7051 24.7549 32.9775 24.3301 32.3086 23.8174L32.3281 32.5039C32.3184 34.457 31.5469 36.2881 30.1504 37.6699C29.0127 38.793 27.5723 39.5107 26.0098 39.7402C25.6436 39.7939 25.2676 39.8232 24.8916 39.8232C23.2217 39.8232 21.6299 39.2812 20.3359 38.2803C20.4824 38.4561 20.6387 38.627 20.8096 38.793C22.2158 40.1797 24.0811 40.9463 26.0684 40.9463C26.4443 40.9463 26.8203 40.917 27.1865 40.8633C28.749 40.6338 30.1895 39.916 31.3271 38.793C32.7236 37.4111 33.4951 35.5801 33.5049 33.627L33.4316 24.9404C34.0957 25.4531 34.8232 25.8828 35.6094 26.21C36.8252 26.7227 38.1143 26.9863 39.4375 26.9863" fill="#F00044"/>
<path d="M20.7949 28.4072C22.1865 27.0254 24.0371 26.2588 26.0098 26.2441V25.2041C25.6436 25.1504 25.2676 25.1211 24.8916 25.1211C22.8994 25.1211 21.0293 25.8877 19.6231 27.2842C18.2412 28.6562 17.4502 30.5312 17.4551 32.4795C17.4551 34.4424 18.2315 36.2832 19.6328 37.6748C19.8574 37.8945 20.0869 38.0996 20.3311 38.2852C19.2276 36.9717 18.627 35.3311 18.6221 33.6025C18.627 31.6543 19.4131 29.7793 20.7949 28.4072Z" fill="#08FFF9"/>
<path d="M38.3145 23.0459V22.001H38.3047C36.9473 22.001 35.6973 21.5518 34.6914 20.79C35.5654 21.9424 36.8447 22.7627 38.3145 23.0459Z" fill="#08FFF9"/>
<path d="M25.8633 37.1035C26.3271 37.1279 26.7715 37.0645 27.1816 36.9326C28.5977 36.4688 29.6182 35.1504 29.6182 33.5977L29.623 27.7871V17.1719H32.416C32.3428 16.8057 32.3037 16.4346 32.2988 16.0488H28.4512V26.6592L28.4463 32.4697C28.4463 34.0225 27.4258 35.3408 26.0098 35.8047C25.5996 35.9414 25.1553 36.0049 24.6914 35.9756C24.1006 35.9414 23.5488 35.7656 23.0703 35.4824C23.6709 36.4102 24.6963 37.04 25.8633 37.1035Z" fill="#08FFF9"/>
<path d="M26.0098 39.7402C27.5723 39.5107 29.0127 38.793 30.1504 37.6699C31.5469 36.2881 32.3184 34.457 32.3281 32.5039L32.3086 23.8174C32.9727 24.3301 33.7002 24.7598 34.4864 25.0869C35.7022 25.5996 36.9912 25.8633 38.3145 25.8633V23.0459C36.8447 22.7627 35.5655 21.9424 34.6914 20.79C33.5391 19.9209 32.709 18.6416 32.4209 17.1719H29.6231V27.7822L29.6182 33.5928C29.6182 35.1455 28.5977 36.4639 27.1817 36.9277C26.7715 37.0645 26.3272 37.1279 25.8633 37.0986C24.6914 37.0352 23.6709 36.4053 23.0703 35.4824C22.0498 34.877 21.3565 33.7783 21.3369 32.5186C21.3076 30.5557 22.9092 28.9541 24.8916 28.9541C25.2822 28.9541 25.6582 29.0176 26.0098 29.1299V26.2393C24.0371 26.2539 22.1865 27.0205 20.7949 28.4023C19.4131 29.7744 18.6221 31.6494 18.627 33.5928C18.627 35.3213 19.2276 36.9619 20.336 38.2754C21.6348 39.2764 23.2217 39.8184 24.8916 39.8184C25.2676 39.8232 25.6436 39.7939 26.0098 39.7402Z" fill="black"/>
</svg>
