<svg width="153" height="274" viewBox="0 0 153 274" fill="none" xmlns="http://www.w3.org/2000/svg">
<g clip-path="url(#clip0_352_3787)">
<path d="M49.0768 4.0095C67.462 10.913 77.4902 24.2598 79.3554 43.6381C80.0821 51.0502 80.397 58.5109 80.7603 65.9473C81.6566 83.1939 88.7054 97.8245 99.969 110.687C107.236 118.947 114.164 127.449 121.77 135.297C152.266 166.569 142.117 205.931 121.77 230.953C104.499 252.051 81.3659 263.388 55.1568 269.54C30.0204 275.091 4.18533 276.782 -21.4601 274.554C-28.1456 274.07 -34.8311 273.658 -41.5166 273.125C-48.3323 272.542 -55.193 273.459 -61.6166 275.81C-68.0402 278.162 -73.8708 281.892 -78.6986 286.738C-86.4253 294.068 -93.5233 302.033 -99.9178 310.55C-109.607 323.339 -119.441 335.838 -132.11 345.842C-156.333 365.002 -183.584 369.677 -213.014 360.376C-225.569 356.14 -236.503 348.118 -244.31 337.413C-261.072 315.612 -267.346 291.389 -262.308 264.478C-259.952 252.925 -254.2 242.339 -245.788 234.078C-231.496 219.229 -213.644 210.582 -193.902 205.447C-186.151 203.436 -178.206 202.177 -170.309 200.602C-163.981 199.633 -157.737 198.175 -151.634 196.242C-136.422 190.864 -126.297 179.916 -118.4 166.521C-105.538 144.72 -104.544 121.708 -112.005 98.0183C-115.364 88.4992 -118.171 78.7939 -120.41 68.9509C-123.414 53.3514 -121.113 38.7935 -111.787 25.6405C-109.724 22.5414 -106.956 19.9752 -103.709 18.1521C-100.463 16.329 -96.8313 15.3009 -93.1112 15.152C-64.5303 13.3036 -36.1127 9.46713 -8.06485 3.67038C2.93505 1.2858 14.1558 0.0679231 25.4111 0.0369501C33.4867 -0.246646 41.5364 1.10458 49.0768 4.0095V4.0095ZM-33.0144 20.2872C-32.8933 20.7959 -32.7721 21.3046 -32.6753 21.7891C-31.6337 21.7891 -30.5921 22.0797 -29.5263 22.1282C-20.1763 22.3946 -10.7536 22.1282 -1.452 23.0486C16.0369 24.8169 29.3837 32.7378 36.3114 49.8391C40.1386 59.2376 43.4329 68.8056 46.4608 78.4705C48.7799 86.7012 51.5784 94.7893 54.8418 102.693C61.4789 117.784 71.9674 130.307 82.3348 142.952C87.4438 148.789 92.0314 155.062 96.0449 161.7C104.644 177.033 102.973 192.948 91.3699 206.076C82.2514 216.59 70.5693 224.567 57.4579 229.233C45.0984 233.6 32.3702 236.843 19.4281 238.923C-3.85008 242.75 -27.4189 243.767 -50.8182 244.712C-71.4076 245.584 -87.1524 254.401 -99.5545 269.879C-106.603 278.6 -113.337 287.078 -120.168 295.556C-125.28 302.052 -131.253 307.822 -137.923 312.705C-150.177 322.102 -165.601 326.375 -180.943 324.623C-197.899 322.612 -208 311.833 -209.018 294.998C-209.817 281.845 -205.118 270.485 -197.512 260.118C-185.134 243.162 -168.444 231.389 -150.18 221.627C-138.069 215.208 -125.812 209.516 -113.628 203.412C-105.713 199.553 -98.0653 195.167 -90.7374 190.283C-82.5846 185.14 -75.9795 177.882 -71.6256 169.282C-62.8811 150.945 -59.8048 131.882 -65.0612 111.874C-67.1766 103.88 -69.2679 95.8867 -71.3349 87.8932C-73.3258 80.4156 -74.5433 72.7532 -74.9683 65.0268C-75.695 48.8944 -71.674 34.9421 -56.0261 26.7547C-54.7665 26.0765 -53.0709 25.4225 -52.8771 22.976C-55.8081 23.194 -58.6663 23.3393 -61.5004 23.6542C-70.8262 24.6716 -80.1036 26.0765 -89.4294 26.6821C-92.7614 26.7806 -95.9943 27.8386 -98.7398 29.7291C-101.485 31.6197 -103.627 34.2624 -104.908 37.3401C-109.643 46.9799 -110.884 57.9646 -108.42 68.418C-106.288 77.7923 -102.946 86.8031 -100.257 96.0078C-92.6994 121.878 -93.5715 146.876 -107.136 170.881C-119.999 193.577 -138.626 207.82 -165.029 211.648C-173.76 212.935 -182.419 214.674 -190.971 216.856C-208.251 220.801 -224.108 229.434 -236.801 241.805C-243.191 247.915 -247.739 255.695 -249.93 264.26C-256.131 290.905 -249.252 314.28 -231.254 334.7C-225.279 341.673 -217.452 346.813 -208.678 349.524C-182.954 357.178 -159.433 352.867 -138.65 335.741C-129.358 327.752 -121.004 318.731 -113.749 308.854C-105.542 297.705 -96.4277 287.253 -86.4984 277.606C-80.6623 271.874 -73.6623 267.462 -65.9726 264.67C-58.2829 261.879 -50.083 260.772 -41.9284 261.426C-32.2392 262.152 -22.6954 262.734 -13.079 263.242C15.9884 264.768 44.8621 262.588 72.2097 251.833C97.9343 241.708 117.385 225.043 125.984 197.72C131.967 178.68 129.4 161.555 115.762 146.343C108.084 137.792 100.55 129.096 92.9686 120.449C80.6876 106.521 71.5314 91.0664 69.4482 72.2937C68.77 66.2137 68.4793 60.1823 68.1402 53.9812C68.0409 48.1238 67.3182 42.2936 65.9844 36.5892C64.9836 32.5436 63.1246 28.7605 60.5334 25.4964C57.9422 22.2323 54.6794 19.5636 50.9662 17.6712C44.8073 14.3596 38.0087 12.4101 31.0308 11.9546C9.0607 10.695 -11.8436 16.3874 -33.0144 20.2872ZM-194.774 279.472C-196.722 284.167 -197.551 289.25 -197.197 294.32C-196.519 304.906 -191.965 310.428 -181.428 312.487C-173.221 314.039 -164.737 313.111 -157.06 309.823C-143.398 304.3 -133.854 294.03 -125.085 282.863C-119.49 275.741 -114.161 268.329 -108.347 261.522C-94.0317 244.566 -76.3732 233.715 -53.2162 233.327C-43.5271 233.158 -33.9833 232.261 -24.3668 231.607C-2.20293 230.13 19.9125 228.24 41.374 221.918C56.2468 217.631 69.9569 211.502 80.6634 200.118C91.3699 188.733 92.145 177.687 83.885 164.558C78.7548 157.054 73.1392 149.893 67.0744 143.121C53.2669 127.079 43.0063 108.3 36.9654 88.0143C33.662 75.9254 29.5345 64.0769 24.6118 52.5521C21.8479 46.0559 16.7109 40.8583 10.2476 38.0184C5.62987 35.8474 0.619633 34.636 -4.47986 34.4576C-15.9615 33.9005 -27.3462 36.2743 -38.8521 34.9421C-41.8008 34.9474 -44.7293 35.43 -47.5238 36.3712C-50.5141 37.0531 -53.2816 38.4848 -55.5658 40.5317C-57.8499 42.5785 -59.5754 45.173 -60.58 48.0708C-62.9858 54.0166 -63.82 60.4818 -63.0022 66.8435C-61.5973 80.699 -57.5279 93.9731 -54.1125 107.393C-51.8424 115.34 -50.7008 123.568 -50.7213 131.833C-51.6902 163.057 -62.8327 188.684 -91.3914 204.696C-101.613 210.436 -112.175 215.62 -122.687 220.78C-138.917 228.846 -155.34 236.597 -169.534 248.151C-180.192 256.799 -189.397 266.609 -194.774 279.472V279.472Z" fill="white"/>
<path d="M1.47893 83.6788C10.9308 88.7461 18.833 96.2799 24.3453 105.479C34.204 121.684 43.3844 138.277 52.7344 154.773C55.4221 159.723 57.241 165.098 58.1119 170.663C60.3162 182.774 56.1014 191.374 45.3223 197.308C41.5238 199.339 37.4407 200.784 33.2108 201.596C19.6362 204.603 6.35767 208.819 -6.46618 214.191C-14.6666 217.516 -23.3399 219.527 -32.1666 220.15C-36.7088 220.613 -41.2975 220.244 -45.7072 219.06C-55.3963 216.154 -59.1266 208.208 -54.6454 199.076C-51.4198 193.231 -47.1698 188.013 -42.098 183.671C-37.6234 179.499 -33.477 174.988 -29.6959 170.179C-21.2421 159.133 -19.7161 146.295 -20.2974 133.093C-20.6365 125.124 -21.993 117.227 -23.0104 109.282C-23.8572 104.29 -23.7173 99.1791 -22.5986 94.24C-19.4012 83.3397 -10.4145 78.8101 1.47893 83.6788ZM46.0005 180.401C46.8899 177.878 47.0246 175.151 46.3881 172.552C45.245 166.527 42.9681 160.773 39.6783 155.596C32.9928 144.672 26.162 133.796 20.5423 122.266C16.6822 114.034 11.261 106.631 4.57945 100.465C2.32971 98.1699 -0.290757 96.2701 -3.17187 94.8456C-7.16864 93.1984 -9.13068 94.0462 -10.5841 98.0914C-11.8695 102.472 -11.8189 107.136 -10.4387 111.487C-7.50776 123.598 -8.01643 135.71 -8.76734 148.015C-9.54978 158.339 -13.2363 168.231 -19.4012 176.549C-23.182 181.702 -27.4663 186.465 -32.1908 190.768C-35.8006 193.947 -39.0499 197.513 -41.88 201.402C-44.3022 205.132 -43.5271 207.24 -39.0217 208.087C-36.6212 208.501 -34.1738 208.566 -31.7548 208.281C-24.0191 207.58 -16.433 205.718 -9.25179 202.758C2.77073 197.563 15.2839 193.587 28.0998 190.889C32.5713 189.993 36.8614 188.356 40.7926 186.045C43.1464 184.845 44.9936 182.843 46.0005 180.401V180.401Z" fill="white"/>
</g>
<defs>
<clipPath id="clip0_352_3787">
<rect width="153" height="274" fill="white"/>
</clipPath>
</defs>
</svg>
