<svg width="89" height="102" viewBox="0 0 89 102" fill="none" xmlns="http://www.w3.org/2000/svg">
<g clip-path="url(#clip0_348_3697)">
<path opacity="0.8" d="M78.5758 36.323C88.734 43.0449 88.7339 57.9551 78.5758 64.6771L28.8814 97.5615C17.5802 105.04 2.49999 96.9359 2.5 83.3844L2.5 17.6156C2.5 4.06411 17.5802 -4.03981 28.8814 3.43854L78.5758 36.323Z" fill="white"/>
</g>
<defs>
<clipPath id="clip0_348_3697">
<rect width="89" height="102" fill="white"/>
</clipPath>
</defs>
</svg>
