<svg width="999" height="315" viewBox="0 0 999 315" fill="none" xmlns="http://www.w3.org/2000/svg">
<path d="M357.331 101.626C359.656 102.811 361.767 104.376 363.576 106.256C365.158 107.85 366.473 109.689 367.471 111.702C368.555 113.911 368.776 116.446 368.089 118.809C367.72 120.294 366.314 122.124 363.845 124.277C361.376 126.43 358.056 129.093 353.942 132.254C349.828 135.416 344.948 139.127 339.439 143.397C333.93 147.667 327.927 152.644 321.509 158.211C324.275 167.454 327.661 176.501 331.642 185.29C336.15 195.201 341.524 204.694 347.704 213.658L347.531 214.869C347.455 215.273 347.331 215.667 347.161 216.042C346.979 216.483 346.789 216.977 346.581 217.533C346.432 217.74 346.544 218.232 346.906 219.025C347.269 219.819 347.319 220.293 347.072 220.486C346.825 220.679 346.543 220.346 345.872 219.792C345.201 219.238 344.785 219.014 344.662 219.106C344.539 219.198 344.462 219.48 344.757 220.035C345.053 220.59 345.076 220.877 344.844 220.962C344.484 221.185 344.062 221.288 343.64 221.256C343.218 221.233 342.799 221.335 342.435 221.55C339.225 222.98 335.723 223.635 332.213 223.46C328.716 223.416 325.366 222.042 322.845 219.617C318.201 214.295 314.212 208.435 310.964 202.162C306.92 194.529 303.267 186.696 300.019 178.692C295.043 184.03 290.027 189.716 284.969 195.75C279.912 201.784 274.88 208.405 269.874 215.611C269.758 215.595 269.661 215.444 269.589 215.177C269.489 215.044 269.497 214.67 269.592 214.07C269.303 214.276 269.026 214.499 268.764 214.738C268.437 215.033 268.092 215.308 267.731 215.56L266.312 216.583C266.209 216.411 266.177 216.207 266.22 216.011C266.111 215.724 265.976 215.448 265.817 215.185C265.256 214.973 264.759 214.621 264.372 214.163C264.08 213.89 263.817 213.589 263.586 213.263C263.109 213.294 262.631 213.262 262.163 213.169C261.642 213.105 261.152 212.888 260.756 212.544C260.36 212.2 260.077 211.746 259.941 211.239C259.478 209.922 259.305 208.521 259.433 207.13C259.511 205.565 259.734 204.01 260.099 202.486C263.755 194.24 268.329 186.433 273.735 179.212C279.411 171.536 285.482 164.159 291.924 157.113C289.199 149.108 286.724 141.313 284.5 133.727C282.276 126.142 280.398 119.354 278.866 113.362C277.288 107.352 276.106 102.451 275.32 98.6595C274.813 96.6065 274.449 94.5208 274.23 92.4173C276.594 90.8178 279.088 89.4186 281.685 88.2343C284.058 87.2427 286.523 86.4898 289.045 85.9869C291.76 85.424 294.57 85.5136 297.244 86.2484C300.052 87.0449 302.459 88.8665 303.988 91.3528C305.938 94.5222 307.433 97.9498 308.429 101.535C309.829 106.318 310.965 111.173 311.833 116.08C312.872 121.592 314.059 127.626 315.394 134.18C320.832 129.324 326.044 124.886 331.032 120.867C336.02 116.849 340.38 113.439 344.113 110.637C347.869 107.809 350.931 105.603 353.299 104.021C355.668 102.439 357.012 101.641 357.331 101.626Z" fill="white"/>
<path d="M207.273 163.783C212.274 166.074 216.921 169.073 221.069 172.687C224.576 175.751 227.661 179.269 230.24 183.148C232.411 186.413 234.16 189.939 235.446 193.643C236.445 196.492 237.151 199.435 237.552 202.427C237.839 204.266 237.808 206.142 237.46 207.971C237.122 209.208 236.609 209.487 235.912 208.814C235.215 208.141 234.169 206.956 232.742 205.344C230.952 203.355 228.898 201.62 226.639 200.187C223.389 198.134 219.925 196.44 216.309 195.137C211.361 193.383 206.192 192.327 200.952 191.999C193.783 191.528 186.585 191.74 179.456 192.632C169.607 193.867 159.877 195.919 150.367 198.768C147.433 197.66 144.786 195.906 142.622 193.636C139.726 190.833 137.139 187.726 134.908 184.369C132.559 180.867 130.637 177.096 129.184 173.137C127.779 169.693 127.279 165.947 127.731 162.256C127.694 161.598 127.872 160.946 128.238 160.399C129.564 157.601 132.327 155.623 136.527 154.464C140.116 151.441 144.494 147.541 149.662 142.762C154.83 137.983 160.259 132.834 165.948 127.312C171.604 121.793 177.193 116.134 182.715 110.334C188.238 104.534 193.217 99.0849 197.653 93.9869C202.083 88.8879 205.744 84.3886 208.635 80.489C211.526 76.5894 213.12 73.6761 213.416 71.749C211.538 70.8362 209.107 70.829 205.989 71.688C202.447 72.7047 199.008 74.048 195.715 75.7005C191.991 77.5175 188.135 79.6003 184.146 81.9489C180.158 84.2975 176.406 86.469 172.891 88.4634C169.361 90.4624 166.322 92.0998 163.774 93.3755C161.218 94.6667 159.463 95.058 158.514 94.5299C156.89 93.6306 155.455 92.4248 154.29 90.9793C152.618 89.0847 151.104 87.0558 149.764 84.9132C148.358 82.719 147.177 80.388 146.241 77.9558C145.386 75.9577 145.066 73.7715 145.312 71.6121C145.64 69.3278 147.275 66.7352 150.217 63.8345C153.527 60.6213 157.155 57.7514 161.043 55.2686C165.566 52.3225 170.271 49.6648 175.129 47.3112C179.95 44.9227 184.943 42.8983 190.067 41.2549C194.409 39.8279 198.881 38.8305 203.418 38.277C207.429 37.8477 210.609 38.2338 212.984 39.4691C216.742 41.5316 220.187 44.1171 223.218 47.1482C226.699 50.6116 229.673 54.5502 232.05 58.847C234.644 63.4577 236.512 68.4406 237.588 73.6202C238.73 79.2247 238.752 84.9998 237.651 90.6126C237.102 94.0176 235.06 98.3739 231.525 103.682C227.513 109.607 223.138 115.279 218.425 120.664C213.226 126.691 207.39 132.808 200.919 139.014C194.447 145.22 187.934 150.925 181.379 156.127C186.752 157.27 191.728 158.517 196.312 159.838C200.059 160.877 203.723 162.196 207.273 163.783V163.783Z" fill="white"/>
<path d="M141.977 16.7391C143.119 17.1619 144.165 17.8079 145.054 18.6394C145.943 19.4708 146.657 20.471 147.155 21.5816C148.46 24.2424 149.349 27.0875 149.792 30.0178C150.315 33.2342 150.438 36.503 150.158 39.7496C149.942 42.7165 149.452 45.6571 148.696 48.5342C148.241 50.6007 147.319 52.5357 146.001 54.1906C144.887 55.4208 143.651 55.475 142.278 54.3715C140.23 52.6372 136.174 51.1386 130.071 49.8698C123.047 48.4761 115.943 47.5272 108.801 47.0287C100.263 46.4003 91.6978 46.22 83.1411 46.4886C74.7385 46.6847 66.3621 47.5025 58.0803 48.9353C66.3859 55.3946 73.865 62.8513 80.349 71.1373L81.9416 70.1472L120.277 50.3075L93.0486 68.6994L119.285 55.5336L118.237 57.7804L106.262 67.8763L110.62 67.3434L102.232 74.1974L108.223 70.6355L108.421 74.0985L94.6148 91.7578C97.8256 97.2408 100.747 102.888 103.368 108.676C105.81 114.051 107.846 119.603 109.456 125.283C110.925 130.358 111.784 135.59 112.014 140.869C112.237 145.506 111.694 150.148 110.405 154.608C108.308 161.254 104.844 167.389 100.235 172.618C96.227 177.066 91.4103 180.712 86.0412 183.362C76.4137 188.081 65.4436 189.302 55.0136 186.816C48.4218 185.341 42.5661 181.578 38.4867 176.195C34.4031 170.677 31.5666 164.338 30.1731 157.617C28.6079 150.389 28.0845 142.974 28.619 135.598C29.0151 128.614 30.3139 121.712 32.483 115.062C33.9598 110.573 36.8304 106.013 41.0947 101.381C45.3827 96.7243 50.0424 92.4246 55.0278 88.5239C49.7776 83.7415 44.7677 78.8761 39.9981 73.9277C35.3734 69.1991 31.1108 64.1296 27.2461 58.7621C24.3864 54.9157 22.5193 50.4237 21.8099 45.6838C21.0705 41.0127 21.0735 36.2542 21.8188 31.5841C22.4192 27.3932 23.6832 23.3247 25.5632 19.5313C27.4033 16.0687 29.5701 13.8617 32.0638 12.9102C36.1754 11.4365 40.4576 10.4909 44.8074 10.0958C49.8429 9.5427 55.3406 9.23051 61.3008 9.15925C67.2609 9.088 73.3779 9.25749 79.6517 9.66771C85.9679 10.0169 92.1585 10.4689 98.2236 11.0237C112.131 12.3348 126.716 14.2399 141.977 16.7391ZM93.5765 141.667C95.1327 136.579 94.0061 131.14 90.1968 125.349C85.6049 118.6 80.2904 112.373 74.3476 106.777C69.6147 110.485 65.1858 114.565 61.1031 118.978C57.261 122.887 54.3149 127.585 52.4687 132.746C51.0145 137.029 50.9464 140.568 52.2646 143.363C53.5235 146.109 55.6967 148.332 58.4129 149.654C61.4907 151.118 64.8342 151.94 68.2399 152.072C71.8681 152.315 75.5125 152.031 79.0589 151.227C82.308 150.514 85.4241 149.292 88.2918 147.607C90.7054 146.321 92.5797 144.214 93.5765 141.667V141.667Z" fill="white"/>
<path d="M223.84 54.6832L199.966 40.3256L210.88 22.0128L213.9 35.7586L226.828 26.6097L222.802 43.3777L239.851 37.6316L223.84 54.6832Z" fill="#DFAD28"/>
<g clip-path="url(#clip0_406_994)">
<path d="M483.22 132.558C480.871 138.492 476.692 144.294 470.667 150.001C464.286 155.923 457.31 161.168 449.85 165.655C453.245 170.118 456.067 174.99 458.25 180.156C460.781 185.937 462.768 191.942 464.187 198.092C465.589 204.028 466.339 210.1 466.422 216.2C466.619 221.349 465.742 226.483 463.847 231.276C464.5 227.528 464.736 223.72 464.552 219.921C464.384 216.82 464.029 213.731 463.487 210.673C462.967 207.845 462.169 205.075 461.107 202.403C461.853 206.865 462.39 211.062 462.716 214.994C462.984 218.398 463.081 221.813 463.007 225.226C463.042 227.935 462.554 230.626 461.568 233.149C461.472 233.035 461.396 232.905 461.342 232.765C461.286 232.626 461.21 232.497 461.115 232.381L460.801 231.984C460.51 232.694 460.043 233.319 459.445 233.799C459.015 234.222 458.559 234.616 458.079 234.98C457.783 235.257 457.406 235.432 457.003 235.479C456.537 235.437 456.069 235.44 455.605 235.489L453.815 235.634C453.186 235.675 452.497 235.717 451.788 235.756L450.371 233.794C449.666 229.025 448.577 224.322 447.114 219.729C445.497 214.513 443.573 209.246 441.342 203.928C439.111 198.61 436.796 193.588 434.4 188.862C431.953 184.157 429.736 180.281 427.747 177.235C425.16 178.271 422.674 179.254 420.29 180.185C417.889 181.086 415.528 181.853 413.228 182.477C412.396 186.217 411.66 189.572 411.019 192.541C410.379 195.511 409.759 198.125 409.16 200.384C408.514 202.971 407.967 205.335 407.52 207.475C407.162 207.949 406.763 208.389 406.326 208.791C405.535 209.682 404.567 210.82 403.435 212.265C402.842 212.73 402.322 213.282 401.894 213.903C401.308 214.693 400.763 215.479 400.247 216.279C399.73 217.079 398.901 218.096 398.206 219.152C397.802 219.235 397.313 219.355 396.756 219.527C396.271 219.742 395.775 219.93 395.268 220.087C394.761 220.238 394.302 220.518 393.936 220.901C393.772 221.128 393.595 221.384 393.423 221.671C393.251 221.958 392.987 222.332 392.65 222.786C392.275 223.28 391.926 223.794 391.605 224.325L390.03 224.098L387.085 227.464C386.88 227.216 386.641 226.999 386.373 226.82C386.029 226.578 385.64 226.406 385.23 226.314C384.569 226.56 384.017 227.033 383.672 227.648C383.23 228.348 382.802 228.669 382.406 228.622C382.485 225.065 382.763 221.515 383.239 217.989C383.863 212.169 384.689 205.083 385.712 196.768C386.734 188.453 387.812 179.543 388.96 170.001C390.109 160.458 391.119 151.317 392.03 142.454C392.94 133.59 393.674 125.676 394.18 118.574C394.66 113.36 394.781 108.119 394.542 102.889C394.697 102.384 395.011 101.943 395.436 101.63C396.122 101.091 396.978 100.815 397.85 100.851C400.627 100.832 403.402 101.015 406.152 101.399C409.602 101.847 412.891 103.126 415.737 105.126C418.965 107.496 421.404 110.784 422.733 114.562C424.413 118.823 424.567 124.683 423.214 132.217C422.47 136.331 421.73 140.459 420.995 144.601C420.26 148.743 419.459 152.829 418.593 156.858C421.687 155.111 425.138 152.913 428.91 150.299C432.898 147.487 436.651 144.356 440.132 140.936C444.032 137.114 447.6 132.966 450.795 128.538C454.28 123.72 457.237 118.542 459.614 113.092C460.129 112.458 460.786 111.955 461.532 111.623C462.278 111.292 463.092 111.142 463.907 111.186C465.892 111.228 467.846 111.683 469.645 112.522C471.748 113.504 473.703 114.775 475.454 116.3C477.263 117.833 478.892 119.567 480.309 121.468C481.611 123.207 482.619 125.148 483.294 127.213C483.931 128.942 483.905 130.847 483.22 132.558V132.558Z" fill="white"/>
<path d="M557.841 235.239C558.088 235.811 558.296 236.398 558.464 236.997C558.616 237.37 558.628 237.786 558.497 238.167C558.35 238.488 558.157 238.993 557.917 239.682C557.676 240.381 557.411 241.107 557.104 241.846C556.655 242.767 556.277 243.721 555.971 244.699L554.619 243.691C549.642 242.375 544.564 241.479 539.437 241.009C533.496 240.391 527.449 240.026 521.295 239.913C515.141 239.8 509.149 239.912 503.319 240.247C498.499 240.503 493.701 241.059 488.951 241.913C485.758 242.594 483.242 242.153 481.403 240.589C479.512 238.948 478.24 236.709 477.801 234.244C477.241 231.337 477.264 228.348 477.867 225.45C478.423 222.362 479.573 219.411 481.255 216.761C485.241 215.316 489.426 214.496 493.663 214.331C498.88 214.028 504.113 214.134 509.314 214.648C514.809 215.15 520.275 215.935 525.689 216.998C530.668 217.98 535.586 219.25 540.418 220.8C544.261 221.999 547.989 223.543 551.554 225.413C554.547 227.039 556.38 228.618 557.084 230.156C557.176 230.28 557.169 230.329 557.06 230.324C556.936 230.294 556.828 230.217 556.759 230.11C556.67 230.107 556.584 230.085 556.504 230.046C556.425 230.007 556.355 229.951 556.299 229.883L558.237 232.975L556.748 233.123L557.841 235.239ZM485.574 194.72C485.411 194.132 485.215 193.554 484.988 192.988C484.893 192.732 484.728 192.507 484.513 192.338C484.298 192.168 484.041 192.062 483.769 192.029C489.11 182.827 494.46 172.503 499.821 161.06C505.511 148.593 510.061 135.638 513.416 122.351C518.92 122.529 524.396 123.21 529.775 124.388C533.653 125.373 536.44 126.681 538.136 128.311C541.182 128.782 544.068 129.986 546.546 131.819C548.997 133.645 550.276 136.408 550.381 140.107C550.407 142.724 550.574 146.466 550.876 151.363C551.178 156.26 551.717 162.026 552.481 168.677C553.245 175.329 554.283 182.663 555.598 190.721C556.914 198.778 558.69 207.344 560.96 216.382L559.776 214.896L558.643 213.407L557.327 215.017L555.688 213.626L554.338 212.598L552.391 213.836C552.315 213.469 552.19 213.113 552.021 212.778C551.695 212.108 551.459 211.399 551.319 210.667C550.979 211.118 550.701 211.612 550.495 212.137C550.178 212.855 549.822 213.555 549.43 214.235C548.909 215.035 548.432 215.862 547.999 216.713L546.654 215.515C542.54 213.717 538.268 212.306 533.893 211.302C529.513 210.293 525.08 209.526 520.616 209.004C516.241 208.499 511.843 208.223 507.439 208.179C503.082 208.149 499.01 208.212 495.223 208.365C491.072 208.479 488.284 207.138 486.856 204.34C485.396 201.354 484.946 197.974 485.575 194.71L485.574 194.72ZM515.192 183.635C518.639 184.405 522.024 185.326 525.347 186.399C528.504 187.417 531.596 188.626 534.606 190.019C533.235 185.568 531.998 181.14 530.895 176.734C529.792 172.328 528.71 168.033 527.649 163.847C525.639 167.398 523.618 170.792 521.585 174.031C519.553 177.27 517.422 180.468 515.194 183.626L515.192 183.635Z" fill="white"/>
<path d="M652.821 163.934C650.789 169.845 647.525 175.258 643.246 179.814C638.429 185.179 633.05 190.01 627.199 194.223C630.026 198.221 632.379 202.535 634.208 207.077C636.376 212.247 638.104 217.591 639.372 223.053C640.631 228.365 641.378 233.786 641.601 239.24C641.894 243.821 641.333 248.415 639.947 252.791C640.362 249.413 640.451 246.003 640.213 242.609C640.008 239.83 639.65 237.064 639.141 234.325C638.645 231.821 637.931 229.365 637.008 226.985C637.71 230.964 638.239 234.725 638.595 238.266C638.894 241.364 639.058 244.403 639.086 247.381C639.184 249.785 638.866 252.187 638.147 254.482C638.063 254.382 637.997 254.267 637.955 254.143C637.908 254.021 637.843 253.906 637.762 253.804L637.51 253.456C637.306 254.072 636.953 254.629 636.484 255.077C636.157 255.456 635.803 255.812 635.427 256.142C635.058 256.471 634.774 256.631 634.577 256.602C634.21 256.571 633.841 256.582 633.477 256.636L632.058 256.784L630.422 256.911L629.256 255.166C628.583 250.943 627.61 246.773 626.343 242.688C624.955 238.034 623.316 233.35 621.426 228.637C619.537 223.924 617.585 219.477 615.573 215.296C613.493 211.112 611.64 207.687 610.013 205.022C608.005 205.989 606.056 206.896 604.197 207.734C602.405 208.55 600.571 209.27 598.702 209.89C598.153 213.248 597.666 216.267 597.242 218.946C596.817 221.625 596.388 223.959 595.955 225.947C595.508 228.267 595.138 230.382 594.844 232.289C594.582 232.71 594.282 233.108 593.95 233.477C593.345 234.264 592.624 235.297 591.761 236.62C591.296 237.048 590.902 237.548 590.593 238.1C590.16 238.812 589.747 239.516 589.363 240.235C588.978 240.954 588.349 241.908 587.835 242.83C587.45 242.915 587.074 243.032 586.709 243.18C586.334 243.377 585.946 243.55 585.549 243.697C585.155 243.831 584.805 244.069 584.536 244.386C584.405 244.598 584.281 244.832 584.154 245.085C584.028 245.338 583.828 245.681 583.568 246.086C583.309 246.491 583.061 246.958 582.797 247.473L581.556 247.295L579.386 250.37C579.229 250.151 579.035 249.96 578.814 249.805C578.536 249.592 578.215 249.439 577.873 249.359C577.348 249.597 576.93 250.02 576.698 250.547C576.367 251.173 576.044 251.458 575.729 251.413C575.642 250.295 575.761 247.133 576.086 241.927C576.411 236.721 576.869 230.423 577.461 223.031C578.041 215.631 578.656 207.66 579.305 199.117C579.955 190.575 580.532 182.357 581.035 174.463C581.499 166.558 581.852 159.433 582.092 153.089C582.325 148.412 582.279 143.724 581.957 139.051C582.061 138.612 582.297 138.214 582.633 137.912C582.88 137.673 583.171 137.484 583.491 137.358C583.811 137.231 584.153 137.169 584.497 137.175C586.688 137.098 588.881 137.208 591.052 137.503C593.833 137.847 596.473 138.919 598.706 140.611C601.384 142.778 603.377 145.675 604.443 148.951C605.91 152.733 606.186 157.998 605.271 164.747C604.793 168.45 604.315 172.157 603.836 175.866C603.351 179.596 602.834 183.27 602.255 186.885C604.652 185.259 607.307 183.242 610.218 180.832C613.33 178.217 616.219 175.348 618.856 172.254C621.873 168.717 624.59 164.936 626.98 160.949C629.646 156.472 631.857 151.739 633.58 146.822C633.941 146.261 634.439 145.802 635.028 145.489C635.616 145.176 636.275 145.019 636.942 145.033C638.556 145.064 640.139 145.477 641.562 146.239C643.286 147.09 644.872 148.195 646.267 149.517C647.766 150.894 649.105 152.435 650.261 154.11C651.347 155.655 652.193 157.356 652.773 159.153C653.31 160.699 653.327 162.378 652.821 163.934V163.934Z" fill="white"/>
<path d="M677.022 230.436C681.761 229.481 686.758 228.624 692.013 227.864C697.267 227.104 702.43 226.606 707.502 226.369C712.356 226.121 717.221 226.221 722.06 226.669C726.221 227.015 730.32 227.894 734.257 229.284C734.203 229.633 734.052 229.96 733.82 230.226C733.526 230.593 733.205 230.936 732.859 231.254C732.498 231.594 732.084 232.027 731.668 232.55L730.918 234.201L725.937 236.139L729.449 237.086C728.732 237.277 728.027 237.512 727.338 237.788C726.679 238.015 726.038 238.293 725.421 238.618C724.782 238.97 724.173 239.373 723.599 239.824C722.594 240.491 721.708 241.322 720.976 242.281C720.454 243.058 719.684 243.635 718.791 243.917C716.944 244.013 715.104 244.211 713.279 244.513C709.918 244.965 705.578 245.729 700.224 246.83C694.871 247.931 688.641 249.468 681.755 251.304C674.461 253.292 667.296 255.724 660.3 258.586C659.122 259.087 657.959 258.32 656.811 256.286C655.572 254.047 654.675 251.635 654.15 249.131C653.536 246.497 653.363 243.779 653.636 241.088C653.914 238.448 654.99 236.743 656.862 235.974C657.848 235.554 658.871 235.227 659.917 234.995C660.3 230.595 660.74 225.757 661.236 220.482C661.732 215.207 662.216 209.847 662.69 204.401C663.16 198.975 663.596 193.604 663.997 188.289C664.398 182.973 664.726 178.053 664.98 173.527C665.243 168.989 665.378 165.015 665.384 161.606C665.44 159.078 665.333 156.548 665.064 154.033C666.083 153.938 667.218 153.8 668.427 153.642L671.942 153.654C673.298 153.667 674.643 153.904 675.922 154.356C679.537 154.56 683.919 155.068 689.068 155.881C694.217 156.693 699.317 157.572 704.367 158.518C709.424 159.458 714.109 160.399 718.423 161.339C722.7 162.275 725.831 162.935 727.835 163.324C727.721 163.637 727.654 163.966 727.635 164.3L727.553 165.574L727.449 166.996C726.933 167.083 726.442 167.28 726.009 167.574C725.551 167.794 725.109 168.046 724.685 168.328C724.214 168.645 723.764 168.994 723.34 169.371C723.107 169.558 722.861 169.728 722.604 169.878C722.287 170.054 721.956 170.258 721.603 170.479C721.207 170.81 720.754 171.068 720.268 171.242L722.782 171.854L718.436 173.501L718.193 175.195C717.225 175.498 716.302 175.767 715.427 175.983C714.747 176.232 714.048 176.421 713.336 176.548C712.912 176.618 712.492 176.712 712.079 176.83C711.902 176.804 711.021 176.778 709.414 176.779L703.384 176.777L695.246 176.765C692.212 176.759 689.218 176.734 686.262 176.692C686.178 177.283 686.143 177.871 686.06 178.452C685.947 179.028 685.864 179.61 685.81 180.194C685.527 182.164 685.317 183.983 685.095 185.739C684.873 187.496 684.591 189.245 684.261 190.986C687.26 191.095 690.251 191.263 693.443 191.5C696.635 191.737 699.642 191.998 702.62 192.254C705.598 192.511 708.334 192.843 710.88 193.239C713.426 193.634 715.527 193.906 717.227 194.25C717.134 194.887 716.913 195.498 716.577 196.046C716.376 196.399 716.184 196.753 715.981 197.116L715.214 200.503L711.054 202.318L712.712 202.737L708.232 205.109L708.251 206.589L703.466 207.158L702.419 208.777C701.558 209.119 700.68 209.419 699.788 209.675C699.078 209.955 698.328 210.209 697.538 210.438L695.694 210.967C695.13 210.964 694.568 211 694.01 211.077C693.06 211.182 691.861 211.341 690.412 211.565C688.963 211.79 687.382 212.025 685.689 212.264C683.997 212.504 682.271 212.698 680.533 212.831C679.85 216.752 679.204 220.2 678.596 223.175C677.989 226.149 677.464 228.57 677.022 230.436Z" fill="white"/>
<path d="M810.416 202.077C810.132 209.654 810.01 216.855 810.049 223.681C810.087 230.507 810.201 236.603 810.389 241.969C810.596 248.27 810.875 254.128 811.223 259.544L809.856 264.373L808.722 264.502L808.101 267.92L806.996 271.982L805.514 272.081L805.128 275.261C804.917 275.153 804.69 275.079 804.456 275.044C804.068 274.978 803.669 275.03 803.309 275.191C803.149 275.258 803.043 275.505 802.982 275.928C802.922 276.351 802.817 276.588 802.667 276.656C801.178 272.551 799.972 268.349 799.055 264.079C797.999 259.305 797.074 254.194 796.281 248.748C795.489 243.301 794.825 237.729 794.289 232.031C793.766 226.342 793.331 220.782 792.984 215.353C791.811 218.863 790.511 222.619 789.086 226.622C787.661 230.624 786.237 234.641 784.814 238.671C783.38 242.692 781.968 246.596 780.581 250.383C779.193 254.17 777.938 257.521 776.817 260.435C776.302 261.37 775.455 262.077 774.442 262.416C773.12 263.02 771.653 263.234 770.213 263.035C768.581 262.777 767.094 261.947 766.017 260.694C764.715 259.331 764.054 257.006 764.003 253.722C763.399 251.626 762.715 249.183 761.949 246.393L759.471 237.264L756.65 226.81C755.652 223.17 754.622 219.448 753.56 215.644C752.725 220.971 751.91 225.879 751.085 230.363C750.261 234.847 749.547 238.774 748.917 242.111C748.174 245.984 747.488 249.57 746.86 252.87L745.275 252.361L739.94 261.524L736.606 262.282L735.443 264.506C735.064 264.186 734.704 263.846 734.363 263.487C734.035 263.248 733.689 263.033 733.329 262.846C733.19 262.753 733.029 262.699 732.862 262.691C732.694 262.683 732.528 262.721 732.381 262.801C731.671 263.261 731.147 263.959 730.903 264.769C730.445 265.859 730.008 266.379 729.584 266.328C730.018 263.302 730.567 259.288 731.232 254.285C731.896 249.282 732.57 243.744 733.254 237.672C733.962 231.617 734.643 225.286 735.296 218.681C735.95 212.075 736.53 205.697 737.038 199.546C737.533 193.386 737.919 187.66 738.197 182.367C738.474 177.074 738.603 172.674 738.584 169.167C738.598 169.069 738.519 168.917 738.37 168.695C738.417 168.699 738.464 168.692 738.508 168.676C738.552 168.66 738.592 168.634 738.625 168.601C738.6 167.746 738.592 166.961 738.601 166.246C738.624 165.583 738.577 164.919 738.463 164.266C739.493 164.091 740.537 164.012 741.582 164.03C742.633 164.038 743.681 164.152 744.709 164.369C745.982 164.635 747.214 165.069 748.373 165.658C750.038 165.602 751.705 165.74 753.338 166.069C754.908 166.371 756.423 166.907 757.833 167.659C759.172 168.377 760.36 169.346 761.333 170.513C762.323 171.729 762.98 173.18 763.241 174.726C765.015 184.769 766.654 194.212 768.159 203.057C769.663 211.902 770.847 219.288 771.712 225.213C773.659 220.234 775.658 215.389 777.707 210.678C779.757 205.968 781.702 201.608 783.544 197.598C785.391 193.595 787.075 190.058 788.594 186.987C790.108 183.928 791.29 181.575 792.142 179.909C792.103 179.363 792.094 178.815 792.117 178.267L792.192 176.901C793.617 176.236 795.145 175.82 796.71 175.671C798.55 175.44 800.413 175.464 802.247 175.742C804.023 175.989 805.728 176.604 807.254 177.546C808.708 178.421 809.811 179.777 810.372 181.38C810.707 182.431 810.908 183.52 810.972 184.621C811.052 185.809 811.082 187.21 811.042 188.822C811.002 190.434 810.923 192.312 810.816 194.457L810.416 202.077Z" fill="white"/>
<path d="M820.836 227.5C821.243 218.782 822.212 211.683 823.742 206.201C824.876 201.761 826.474 197.454 828.511 193.349C829.631 190.969 831.167 188.807 833.045 186.965C834.414 185.825 835.169 185.26 835.314 185.16C835.985 184.854 836.72 184.709 837.457 184.738C838.195 184.767 838.915 184.969 839.561 185.328C841.151 186.115 842.578 187.196 843.766 188.514C845.007 189.854 846.059 191.358 846.894 192.982C847.616 194.261 848.011 195.699 848.042 197.167C847.868 198.327 847.326 199.401 846.496 200.231C845.205 201.87 844.074 203.629 843.12 205.485C841.617 208.477 840.428 211.617 839.574 214.854C838.307 219.77 837.61 224.816 837.496 229.891C837.166 235.432 837.474 240.993 838.414 246.464C839.08 250.285 840.161 254.022 841.638 257.609C842.561 259.922 843.868 262.063 845.503 263.942C846.253 264.853 847.165 265.618 848.194 266.197C849.029 266.397 850.2 265.872 851.693 264.639C853.561 262.874 855.074 260.768 856.151 258.435C857.895 254.86 859.237 251.103 860.151 247.232C861.43 241.817 862.133 236.283 862.249 230.72C862.406 227.16 862.31 223.594 861.962 220.047C861.703 217.281 861.24 214.537 860.578 211.839C860.091 209.782 859.366 207.789 858.415 205.901C857.672 204.454 856.808 203.073 855.832 201.772C853.972 199.391 851.364 197.707 848.429 196.991L847.713 196.587L848.558 196.226C848.986 196.046 849.176 195.772 849.117 195.412C849.051 195.312 849.462 195.391 850.359 195.65C851.438 195.984 852.483 196.42 853.479 196.952C854.737 197.618 855.923 198.411 857.018 199.319C858.144 200.203 859.017 201.368 859.548 202.697C859.168 201.119 858.323 199.692 857.121 198.601C855.98 197.541 854.715 196.624 853.353 195.869C852.19 195.233 850.977 194.693 849.726 194.253C849.176 194.118 848.655 193.887 848.186 193.57C848.24 193.035 848.393 192.515 848.637 192.037C848.804 191.71 849.039 191.424 849.327 191.196C849.614 190.969 849.948 190.806 850.304 190.718C851.95 190.12 853.727 189.973 855.45 190.291C857.556 190.637 859.572 191.402 861.378 192.539C863.583 193.92 865.551 195.648 867.206 197.656C869.252 200.134 870.927 202.897 872.179 205.857C873.755 209.588 874.881 213.495 875.534 217.493C876.362 222.613 876.664 227.805 876.435 232.987C876.323 240.127 875.268 247.22 873.297 254.083C871.827 259.199 869.651 264.085 866.832 268.601C864.839 271.91 862.155 274.75 858.964 276.928C856.175 278.648 853.738 279.383 851.614 279.129C846.212 278.582 841.117 276.361 837.04 272.776C832.998 269.162 829.693 264.801 827.306 259.933C824.786 254.826 823.012 249.383 822.038 243.772C821.041 238.409 820.638 232.952 820.836 227.5V227.5Z" fill="white"/>
<path d="M935.271 216.62C934.663 226.877 934.231 235.655 933.974 242.954C933.717 250.253 933.574 256.406 933.545 261.413C933.551 266.419 933.617 270.414 933.744 273.401C933.872 276.387 933.995 278.749 934.114 280.488C934.237 282.224 934.32 283.532 934.371 284.303C934.428 284.993 934.383 285.688 934.236 286.364C933.954 287.235 933.497 288.038 932.892 288.724C932.238 289.492 931.444 290.128 930.553 290.599C929.666 291.079 928.673 291.33 927.664 291.33C926.606 291.326 925.574 291.002 924.702 290.403C923.597 289.573 922.717 288.479 922.144 287.222C921.242 285.322 920.651 283.29 920.395 281.202C918.838 277.629 917.291 273.722 915.756 269.482C914.221 265.242 912.678 260.934 911.129 256.558C909.613 252.133 908.134 247.67 906.689 243.168C905.245 238.667 903.817 234.311 902.404 230.102C901.938 235.522 901.489 240.754 901.028 245.783C900.568 250.812 900.127 255.351 899.7 259.309C899.252 263.975 898.814 268.307 898.388 272.306L897.811 271.841L895.183 278.388L893.693 279.249L892.386 283.664L891.246 282.084L889.722 286.749L889.033 286.65C888.831 286.623 888.626 286.642 888.432 286.705C888.258 286.758 888.09 286.828 887.93 286.914C887.445 287.316 887.035 287.802 886.719 288.348C886.68 287.639 886.681 285.88 886.731 283.084C886.781 280.287 886.87 276.793 886.988 272.609L887.411 258.601C887.563 253.478 887.704 248.229 887.832 242.854C887.96 237.479 888.085 232.178 888.205 226.949C888.308 221.752 888.345 216.92 888.316 212.454C888.287 207.988 888.252 204.147 888.211 200.932C888.174 198.575 888.016 196.221 887.736 193.88C888.062 193.776 888.428 193.678 888.782 193.588C889.746 193.397 890.735 193.379 891.704 193.535C893.093 193.046 894.556 192.803 896.028 192.819C897.517 192.82 898.986 193.175 900.311 193.856C901.734 194.602 902.989 195.634 903.996 196.887C905.198 198.436 906.029 200.239 906.425 202.16C907.438 206.767 908.581 211.5 909.854 216.359C911.126 221.218 912.41 225.995 913.706 230.689C915.003 235.378 916.259 239.856 917.476 244.124C918.692 248.392 919.795 252.147 920.783 255.391C921.226 249.506 921.73 243.398 922.297 237.068C922.864 230.737 923.462 224.794 924.093 219.237C924.737 213.628 925.345 208.69 925.917 204.424C926.532 200.141 926.981 197.01 927.469 195.08C927.66 195.606 927.757 196.16 927.756 196.719C927.759 197.281 927.856 197.838 928.042 198.368C928.157 198.546 928.288 198.333 928.418 197.709C928.548 197.084 928.68 196.862 928.794 197.049C928.917 197.342 929.005 197.648 929.055 197.961C929.163 198.469 929.259 198.995 929.343 199.6C929.427 200.205 929.509 200.75 929.622 201.298C929.721 201.639 929.837 201.974 929.97 202.303C930.196 202.597 930.53 202.79 930.898 202.838C931.106 202.888 931.323 202.888 931.531 202.838C931.986 204.15 932.415 205.498 932.811 206.871C933.151 208.075 933.513 209.404 933.917 210.859C934.321 212.313 934.669 213.81 935.003 215.336C935.129 215.856 935.219 216.281 935.271 216.62Z" fill="white"/>
<path d="M942.392 246.894C942.379 240.386 943.009 233.892 944.27 227.507C945.08 223.478 946.282 219.538 947.858 215.742C948.694 213.59 949.897 211.6 951.415 209.861C951.992 209.267 952.602 208.707 953.244 208.184C953.779 207.892 954.382 207.746 954.992 207.759C955.602 207.773 956.198 207.946 956.72 208.261C958.047 208.969 959.23 209.919 960.207 211.063C961.266 212.28 962.16 213.631 962.866 215.082C963.495 216.259 963.847 217.564 963.896 218.898C963.791 219.943 963.376 220.934 962.704 221.742C961.672 223.267 960.787 224.886 960.06 226.578C958.884 229.332 957.978 232.194 957.357 235.124C956.423 239.631 955.97 244.225 956.003 248.827C955.858 253.87 956.232 258.914 957.119 263.881C957.748 267.329 958.717 270.706 960.013 273.963C960.795 276.033 961.906 277.964 963.302 279.681C963.911 280.488 964.669 281.171 965.536 281.69C966.224 281.869 967.168 281.382 968.358 280.236C969.874 278.563 971.063 276.62 971.863 274.508C973.218 271.204 974.233 267.771 974.891 264.261C975.815 259.294 976.266 254.251 976.239 249.199C976.292 245.954 976.133 242.709 975.764 239.484C975.488 236.985 975.044 234.507 974.437 232.068C973.985 230.214 973.338 228.413 972.504 226.696C971.872 225.396 971.133 224.15 970.295 222.972C968.801 220.881 966.618 219.383 964.13 218.741L963.528 218.383L964.22 218.04C964.37 217.987 964.496 217.882 964.576 217.745C964.657 217.607 964.686 217.446 964.659 217.289C964.602 217.2 964.944 217.27 965.644 217.43C966.544 217.72 967.412 218.1 968.235 218.566C969.305 219.167 970.311 219.878 971.237 220.685C972.191 221.509 972.921 222.561 973.36 223.743C973.024 222.342 972.303 221.062 971.278 220.048C970.331 219.106 969.276 218.28 968.134 217.587C967.197 217.033 966.217 216.557 965.203 216.161C964.354 215.848 963.93 215.647 963.932 215.567C963.955 215.078 964.061 214.597 964.246 214.145C964.374 213.859 964.564 213.605 964.802 213.401C965.039 213.197 965.319 213.048 965.622 212.965C966.929 212.387 968.377 212.204 969.787 212.438C971.544 212.725 973.218 213.391 974.693 214.388C976.561 215.636 978.213 217.179 979.584 218.959C981.344 221.219 982.779 223.715 983.846 226.374C985.223 229.795 986.225 233.355 986.834 236.993C987.623 241.658 987.984 246.385 987.912 251.116C987.991 257.595 987.289 264.06 985.822 270.372C984.759 274.999 983.104 279.469 980.898 283.674C979.375 286.636 977.23 289.235 974.609 291.293C972.37 292.891 970.382 293.58 968.663 293.374C964.148 292.878 959.924 290.904 956.646 287.76C953.218 284.452 950.431 280.539 948.424 276.219C946.243 271.578 944.68 266.671 943.775 261.624C942.822 256.773 942.359 251.838 942.392 246.894Z" fill="white"/>
</g>
<defs>
<clipPath id="clip0_406_994">
<rect width="609.394" height="129.306" fill="white" transform="translate(394.986 99.7969) rotate(8.16717)"/>
</clipPath>
</defs>
</svg>
